RhoGEF;I-set;51
Pkinase;fn3;132
Pkinase;I-set;162
EGF_2;fn3;62
EGF_2;EGF_Tenascin;36
WD40;WD40;36.0
PDZ;PDZ;78.0
SH3_9;Nebulin;75
RCC1;RCC1;120.0
Sushi;Sushi;435.0
Thyroglobulin_1;Thyroglobulin_1;45.0
I-set;I-set;13041.0
I-set;fn3;21384
I-set;PPAK;1134
I-set;THB;162
I-set;Titin_Z;1134
I-set;IQ;51
I-set;Laminin_EGF;81
I-set;Ldl_recept_a;36
ubiquitin;ubiquitin;136.0
Laminin_B;Laminin_EGF;34
Laminin_EGF;Laminin_EGF;171.0
Laminin_EGF;Laminin_G_1;85
Laminin_EGF;Ldl_recept_a;36
Laminin_EGF;Laminin_G_2;76
Laminin_EGF;fn3;160
zf-RanBP;Ran_BP1;32
Trypsin;Kringle;38
CUB;CUB;351.0
CUB;EGF_CA;81
CUB;EGF;81
F5_F8_type_C;LSPR;42
KH_1;KH_1;91.0
cEGF;EGF_CA;78
cEGF;Ldl_recept_a;34
EGF_CA;EGF_CA;741.0
EGF_CA;Ldl_recept_a;68
EGF_CA;EGF;100
EGF_CA;hEGF;78
EGF_CA;TB;351
EGF_CA;Fibrillin_U_N;39
Ldl_recept_a;Ldl_recept_a;561.0
Ldl_recept_a;Ldl_recept_b;476
Ldl_recept_b;Ldl_recept_b;120.0
Ank_2;Ank_2;55.0
Ank_2;EGF;50
EGF;EGF;300.0
EGF;hEGF;72
EGF;Notch;75
EGF;Laminin_G_2;39
EGF;LRR_8;35
fn3;fn3;8646.0
fn3;PPAK;924
fn3;THB;132
fn3;Titin_Z;924
fn3;Laminin_G_2;32
fn3;Collagen;120
fn3;fn1;204
fn3;fn2;34
fn3;EGF_Tenascin;310
zf-C2H2;zf-C2H2;406.0
Spectrin;Spectrin;190.0
Spectrin;CH;34
Spectrin;Plectin;153
CH;Filamin;46
Nebulin;Nebulin;2775.0
Collagen;Collagen;210.0
Collagen;C4;42
PKD;PKD;105.0
PPAK;Titin_Z;49
Cadherin;Cadherin;276.0
Filamin;Filamin;253.0
Kringle;Kringle;703.0
VWA;VWA;55.0
Clathrin;Clathrin_propel;35
SRCR;SRCR;36.0
TB;TB;36.0
EGF_3;Fasciclin;36
RNA_pol_Rpb1_1;RNA_pol_Rpb1_R;42
RNA_pol_Rpb1_2;RNA_pol_Rpb1_R;42
RNA_pol_Rpb1_3;RNA_pol_Rpb1_R;42
RNA_pol_Rpb1_4;RNA_pol_Rpb1_R;42
RNA_pol_Rpb1_5;RNA_pol_Rpb1_R;42
RNA_pol_Rpb1_6;RNA_pol_Rpb1_R;42
RNA_pol_Rpb1_7;RNA_pol_Rpb1_R;42
RNA_pol_Rpb1_R;RNA_pol_Rpb1_R;861.0
KI67R;KI67R;120.0
Cu-oxidase_3;LSPR;42
Plectin;Plectin;36.0
fn1;fn1;66.0
Daz;Daz;66.0
LSPR;LSPR;210.0
CIMR;CIMR;105.0
Cys_rich_FGFR;Cys_rich_FGFR;105.0
EGF_Tenascin;EGF_Tenascin;45.0
DUF1388;DUF1388;45.0
